{
    "company_tag_list":[
        {
            "media_index":"7.7k",
            "index_sort":"desc",
            "id":"2241",
            "company_name":"宁德时代",
            "tags":[
                {
                    "name":"回应"
                },
                {
                    "name":"疫情"
                }
            ],
            "publishtime":"1658305713",
            "articles":[
                {
                    "type":"article",
                    "id":"7779004",
                    "title":"宁德时代：公司积极配合政府参与防疫工作，目前经营正常",
                    "publishtime":"1658305713",
                    "tags":[
                        {
                            "name":"回应"
                        },
                        {
                            "name":"疫情"
                        }
                    ]
                }
            ]
        },
        {
            "media_index":"3.6k",
            "index_sort":"desc",
            "id":"2683",
            "company_name":"华硕",
            "tags":[
                {
                    "name":"虚假宣传"
                },
                {
                    "name":"行政处罚"
                }
            ],
            "publishtime":"1658283783",
            "articles":[
                {
                    "type":"article",
                    "id":"7776499",
                    "title":"华硕官方旗舰店电脑CPU参数标错被罚",
                    "publishtime":"1658283783",
                    "tags":[
                        {
                            "name":"虚假宣传"
                        },
                        {
                            "name":"行政处罚"
                        }
                    ]
                }
            ]
        },
        {
            "media_index":"5k",
            "index_sort":"desc",
            "id":"1824",
            "company_name":"Twitter",
            "tags":[
                {
                    "name":"兼并异常"
                },
                {
                    "name":"诉讼纠纷"
                }
            ],
            "publishtime":"1658272960",
            "articles":[
                {
                    "type":"original_h5",
                    "source":"新浪",
                    "url":"https://auto.sina.com.cn/zz/hy/2022-07-20/detail-imizirav4533965.shtml",
                    "id":"c1a2d24dc4bcfe8fd8c5e84ffc42d287",
                    "title":"推特诉马斯克案将于10月举行审判",
                    "publishtime":"1658272960",
                    "tags":[
                        {
                            "name":"兼并异常"
                        },
                        {
                            "name":"诉讼纠纷"
                        }
                    ]
                }
            ]
        },
        {
            "media_index":"409",
            "index_sort":"desc",
            "id":"2528",
            "company_name":"中国人寿",
            "tags":[
                {
                    "name":"行政处罚"
                }
            ],
            "publishtime":"1658232000",
            "articles":[
                {
                    "type":"original_h5",
                    "source":"江苏银保监局",
                    "url":"http://www.cbirc.gov.cn/branch/jiangsu/view/pages/common/ItemDetail.html?docId=1062000",
                    "id":"13e4208dfb0bfd93878c352b9e92c90e",
                    "title":"南通银保监分局行政处罚信息公开表(通银保监罚决字〔2022〕19号)",
                    "publishtime":"1658232000",
                    "tags":[
                        {
                            "name":"行政处罚"
                        }
                    ]
                }
            ]
        },
        {
            "media_index":"406",
            "index_sort":"desc",
            "id":"2310",
            "company_name":"上海电气",
            "tags":[
                {
                    "name":"诉讼纠纷"
                }
            ],
            "publishtime":"1658228822",
            "articles":[
                {
                    "type":"article",
                    "id":"7773540",
                    "title":"上海电气：子公司重大诉讼被法院裁定中止",
                    "publishtime":"1658228822",
                    "tags":[
                        {
                            "name":"诉讼纠纷"
                        }
                    ]
                }
            ]
        },
        {
            "media_index":"4.9k",
            "index_sort":"desc",
            "id":"1881",
            "company_name":"宝马",
            "tags":[
                {
                    "name":"产品召回"
                }
            ],
            "publishtime":"1658225353",
            "articles":[
                {
                    "type":"original_h5",
                    "source":"新浪财经",
                    "url":"https://finance.sina.cn/7x24/2022-07-19/detail-imizmscv2557488.d.html",
                    "id":"95614cba2898ea5419f79b93021f0670",
                    "title":"美国国家公路交通安全管理局:宝马北美公司对6,930辆美国汽车实施召回。",
                    "publishtime":"1658225353",
                    "tags":[
                        {
                            "name":"产品召回"
                        }
                    ]
                }
            ]
        },
        {
            "media_index":"-",
            "index_sort":"equally",
            "id":"2349",
            "company_name":"太平洋保险",
            "tags":[
                {
                    "name":"行政处罚"
                }
            ],
            "publishtime":"1658224800",
            "articles":[
                {
                    "type":"original_h5",
                    "source":"河北银保监局",
                    "url":"https://www.cbirc.gov.cn/branch/hebei/view/pages/common/ItemDetail.html?docId=1062201",
                    "id":"8e9ff864b2ed50325489c0d250f7c557",
                    "title":"秦皇岛银保监分局行政处罚信息公开表(秦银保监罚决字〔2022〕1号)",
                    "publishtime":"1658224800",
                    "tags":[
                        {
                            "name":"行政处罚"
                        }
                    ]
                }
            ]
        },
        {
            "media_index":"6.2k",
            "index_sort":"desc",
            "id":"2258",
            "company_name":"苹果",
            "tags":[
                {
                    "name":"反垄断"
                },
                {
                    "name":"违规违法"
                }
            ],
            "publishtime":"1658223504",
            "articles":[
                {
                    "type":"original_h5",
                    "source":"同花顺",
                    "url":"http://news.10jqka.com.cn/20220719/c640549411.shtml",
                    "id":"82159da970f1503f120bd7c08a5681c0",
                    "title":"俄罗斯联邦反垄断局裁定苹果公司违反反垄断法",
                    "publishtime":"1658223504",
                    "tags":[
                        {
                            "name":"反垄断"
                        },
                        {
                            "name":"违规违法"
                        }
                    ]
                }
            ]
        },
        {
            "media_index":"1.3k",
            "index_sort":"asc",
            "id":"2012",
            "company_name":"桂东电力",
            "tags":[
                {
                    "name":"立案调查"
                }
            ],
            "publishtime":"1658223503",
            "articles":[
                {
                    "type":"original_h5",
                    "source":"经济观察报",
                    "url":"http://www.eeo.com.cn/2022/0719/544252.shtml",
                    "id":"148d3e3b1be266017b899d62fc18dfbe",
                    "title":"桂东电力:收到中国证监会立案告知书和调查通知书",
                    "publishtime":"1658223503",
                    "tags":[
                        {
                            "name":"立案调查"
                        }
                    ]
                }
            ]
        },
        {
            "media_index":"1.6k",
            "index_sort":"desc",
            "id":"2659",
            "company_name":"贵州百灵",
            "tags":[
                {
                    "name":"股权质押"
                }
            ],
            "publishtime":"1658222824",
            "articles":[
                {
                    "type":"original_h5",
                    "source":"每经网",
                    "url":"http://www.nbd.com.cn/articles/2022-07-19/2370648.html",
                    "id":"9263487e865cf4b396905e789a0cfc03",
                    "title":"贵州百灵:姜伟累计质押股数约为2.24亿股",
                    "publishtime":"1658222824",
                    "tags":[
                        {
                            "name":"股权质押"
                        }
                    ]
                }
            ]
        },
        {
            "media_index":"2.7k",
            "index_sort":"desc",
            "id":"2962",
            "company_name":"万华化学",
            "tags":[
                {
                    "name":"股权质押"
                }
            ],
            "publishtime":"1658222516",
            "articles":[
                {
                    "type":"original_h5",
                    "source":"每经网",
                    "url":"http://www.nbd.com.cn/articles/2022-07-19/2370636.html",
                    "id":"e0a8211dc91e57ba986f096f840ff491",
                    "title":"万华化学:Prime Partner International Limited累计质押股份约1.21亿股",
                    "publishtime":"1658222516",
                    "tags":[
                        {
                            "name":"股权质押"
                        }
                    ]
                }
            ]
        },
        {
            "media_index":"2.7k",
            "index_sort":"asc",
            "id":"2893",
            "company_name":"中煤能源",
            "tags":[
                {
                    "name":"经营数据"
                },
                {
                    "name":"销量下滑"
                }
            ],
            "publishtime":"1658220313",
            "articles":[
                {
                    "type":"article",
                    "id":"7772310",
                    "title":"中煤能源：6月商品煤销量1832万吨，同比降25.9%",
                    "publishtime":"1658220313",
                    "tags":[
                        {
                            "name":"经营数据"
                        },
                        {
                            "name":"销量下滑"
                        }
                    ]
                }
            ]
        },
        {
            "media_index":"6.1k",
            "index_sort":"desc",
            "id":"2362",
            "company_name":"腾讯",
            "tags":[
                {
                    "name":"业务裁撤"
                }
            ],
            "publishtime":"1658220287",
            "articles":[
                {
                    "type":"original_h5",
                    "source":"钛媒体",
                    "url":"https://www.tmtpost.com/nictation/6188489.html",
                    "id":"5fbc72852ab6cc80db8fc8d9565dfe60",
                    "title":"腾讯看点快报App宣布7月18日停止运营",
                    "publishtime":"1658220287",
                    "tags":[
                        {
                            "name":"业务裁撤"
                        }
                    ]
                }
            ]
        },
        {
            "media_index":"4.4k",
            "index_sort":"desc",
            "id":"1996",
            "company_name":"工商银行",
            "tags":[
                {
                    "name":"行政处罚"
                }
            ],
            "publishtime":"1658215260",
            "articles":[
                {
                    "type":"original_h5",
                    "source":"广东银保监局",
                    "url":"http://www.cbirc.gov.cn/branch/beijing/view/pages/common/ItemDetail.html?docId=1062541",
                    "id":"3679bd94da88b59dc4dcad18497f528c",
                    "title":"广东银保监局行政处罚信息公开表(2022年37号)",
                    "publishtime":"1658215260",
                    "tags":[
                        {
                            "name":"行政处罚"
                        }
                    ]
                }
            ]
        },
        {
            "media_index":"2.1k",
            "index_sort":"desc",
            "id":"2620",
            "company_name":"渤海银行",
            "tags":[
                {
                    "name":"行政处罚"
                }
            ],
            "publishtime":"1658214900",
            "articles":[
                {
                    "type":"original_h5",
                    "source":"广东银保监局",
                    "url":"http://www.cbirc.gov.cn/branch/beijing/view/pages/common/ItemDetail.html?docId=1062534",
                    "id":"e87ea32d0b125e343309dca64f525b98",
                    "title":"广东银保监局行政处罚信息公开表(2022年33号)",
                    "publishtime":"1658214900",
                    "tags":[
                        {
                            "name":"行政处罚"
                        }
                    ]
                }
            ]
        },
        {
            "media_index":"5k",
            "index_sort":"desc",
            "id":"1824",
            "company_name":"Twitter",
            "tags":[
                {
                    "name":"兼并异常"
                }
            ],
            "publishtime":"1658194312",
            "articles":[
                {
                    "type":"original_h5",
                    "source":"同花顺",
                    "url":"http://news.10jqka.com.cn/20220719/c640536963.shtml",
                    "id":"4de1be3cd8a126186b58901e02a38bf3",
                    "title":"市场消息:马斯克计划反诉Twitter以摆脱交易",
                    "publishtime":"1658194312",
                    "tags":[
                        {
                            "name":"兼并异常"
                        }
                    ]
                }
            ]
        },
        {
            "media_index":"3.3k",
            "index_sort":"desc",
            "id":"2540",
            "company_name":"中国邮政",
            "tags":[
                {
                    "name":"行政处罚"
                }
            ],
            "publishtime":"1658193960",
            "articles":[
                {
                    "type":"original_h5",
                    "source":"黑龙江银保监局",
                    "url":"http://www.cbirc.gov.cn/branch/heilongjiang/view/pages/common/ItemDetail.html?docId=1062545",
                    "id":"69464e491fff9f1f99ffae0847e31e83",
                    "title":"大兴安岭银保监分局行政处罚信息公开表(大银保监罚决字〔2022〕11号)",
                    "publishtime":"1658193960",
                    "tags":[
                        {
                            "name":"行政处罚"
                        }
                    ]
                }
            ]
        },
        {
            "media_index":"693",
            "index_sort":"desc",
            "id":"2100",
            "company_name":"建设银行",
            "tags":[
                {
                    "name":"行政处罚"
                }
            ],
            "publishtime":"1658193660",
            "articles":[
                {
                    "type":"original_h5",
                    "source":"黑龙江银保监局",
                    "url":"http://www.cbirc.gov.cn/branch/heilongjiang/view/pages/common/ItemDetail.html?docId=1062520",
                    "id":"01d7a20cbb8853390f2e6f470074979f",
                    "title":"大庆银保监分局行政处罚信息公开表(庆银保监罚决字〔2022〕65号)",
                    "publishtime":"1658193660",
                    "tags":[
                        {
                            "name":"行政处罚"
                        }
                    ]
                }
            ]
        },
        {
            "media_index":"2.9k",
            "index_sort":"desc",
            "id":"2586",
            "company_name":"Alphabet",
            "tags":[
                {
                    "name":"行政处罚"
                }
            ],
            "publishtime":"1658190646",
            "articles":[
                {
                    "type":"original_h5",
                    "source":"财联社",
                    "url":"https://www.cls.cn/detail/1074944",
                    "id":"c9e7d2fa1223f489eefd40bb5f8a5ca9",
                    "title":"俄罗斯以相同理由再向谷歌开罚单:“屡次未删除违禁内容” 罚款3.73亿美元",
                    "publishtime":"1658190646",
                    "tags":[
                        {
                            "name":"行政处罚"
                        }
                    ]
                }
            ]
        },
        {
            "media_index":"66",
            "index_sort":"asc",
            "id":"1897",
            "company_name":"必和必拓",
            "tags":[
                {
                    "name":"经营数据"
                },
                {
                    "name":"销量下滑"
                }
            ],
            "publishtime":"1658189718",
            "articles":[
                {
                    "type":"article",
                    "id":"7768706",
                    "title":"必和必拓第四财季西澳铁矿石销量7280万吨，同比下降1.2%",
                    "publishtime":"1658189718",
                    "tags":[
                        {
                            "name":"经营数据"
                        },
                        {
                            "name":"销量下滑"
                        }
                    ]
                }
            ]
        }
    ],
    "page":1,
    "pageCount":20,
    "totalPage":"2",
    "total":"27",
    "calendar_time":{
        "start_time":"2022-05-01",
        "end_time":"2022-10-10"
    },
    "tag_company_list":[
        {
            "tid":"0",
            "name":"全部",
            "company":[
                {
                    "cid":"2360",
                    "name":"特斯拉"
                },
                {
                    "cid":"2989",
                    "name":"徐工机械"
                },
                {
                    "cid":"2260",
                    "name":"浦发银行"
                },
                {
                    "cid":"2505",
                    "name":"正邦科技"
                },
                {
                    "cid":"3042",
                    "name":"碧水源"
                }
            ]
        },
        {
            "tid":"1176",
            "name":"行政处罚",
            "company":[
                {
                    "cid":"2260",
                    "name":"浦发银行"
                },
                {
                    "cid":"2075",
                    "name":"华夏银行"
                },
                {
                    "cid":"2867",
                    "name":"中信信托"
                },
                {
                    "cid":"2538",
                    "name":"中国银行"
                },
                {
                    "cid":"2223",
                    "name":"民生银行"
                }
            ]
        },
        {
            "tid":"619",
            "name":"停牌",
            "company":[
                {
                    "cid":"2989",
                    "name":"徐工机械"
                },
                {
                    "cid":"3042",
                    "name":"碧水源"
                }
            ]
        },
        {
            "tid":"592",
            "name":"安全事故",
            "company":[
                {
                    "cid":"2360",
                    "name":"特斯拉"
                }
            ]
        },
        {
            "tid":"871",
            "name":"股权质押",
            "company":[
                {
                    "cid":"2428",
                    "name":"协鑫集团"
                }
            ]
        },
        {
            "tid":"875",
            "name":"业绩下滑",
            "company":[
                {
                    "cid":"1824",
                    "name":"Twitter"
                }
            ]
        },
        {
            "tid":"598,1106,1160,590,1129,1117,1163",
            "name":"其他",
            "company":[
                {
                    "cid":"2505",
                    "name":"正邦科技"
                },
                {
                    "cid":"2509",
                    "name":"支付宝"
                },
                {
                    "cid":"2516",
                    "name":"中国国航"
                },
                {
                    "cid":"2502",
                    "name":"招商银行"
                },
                {
                    "cid":"2340",
                    "name":"松下"
                }
            ]
        }
    ],
    "tag_company_source_list":{
        "tag":[
            {
                "tid":"0",
                "name":"全部"
            },
            {
                "tid":"1726",
                "name":"行政处罚"
            }
        ],
        "company":[
            {
                "cid":"2459",
                "name":"伊利"
            },
            {
                "cid":"2258",
                "name":"苹果"
            },
            {
                "cid":"1824",
                "name":"Twitter"
            },
            {
                "cid":"2012",
                "name":"桂东电力"
            },
            {
                "cid":"2528",
                "name":"中国人寿"
            }
        ],
        "source":[
            {
                "sid":"2459",
                "name":"财联社"
            },
            {
                "sid":"2258",
                "name":"新浪"
            },
            {
                "sid":"1824",
                "name":"同花顺"
            },
            {
                "sid":"2012",
                "name":"每经网"
            },
            {
                "sid":"2528",
                "name":"钛媒体"
            }
        ]
    },
    "explain":""
}